{"_id":{"$oid":"623d9666dd632f000102b005"},"keyPub":{"rawData":"ApvvQXz/u74xBw0EGel4dMlum22aggyz1Da8vdzajAU3"},"assemblyId":{"data":"y9g1pIpm9O4fub/cvGHl/p10xlsc0qGTGKZTZdgJPQg="},"score":"1","rank":0}
{"_id":{"$oid":"623d9666dd632f000102b006"},"keyPub":{"rawData":"AjXve1NO7uRXZJi3eYApOgTIHcQrZznWmIc7ibKesjKA"},"assemblyId":{"data":"y9g1pIpm9O4fub/cvGHl/p10xlsc0qGTGKZTZdgJPQg="},"score":"1","rank":1}
{"_id":{"$oid":"623d9666dd632f000102b007"},"keyPub":{"rawData":"Avl8dMbY8m6X7vVfCxeXQDIPvYGe7GcFsa7m7HMUJfip"},"assemblyId":{"data":"y9g1pIpm9O4fub/cvGHl/p10xlsc0qGTGKZTZdgJPQg="},"score":"1","rank":2}
{"_id":{"$oid":"623d9666dd632f000102b008"},"keyPub":{"rawData":"Aquv5BMWEvht85wuBlZWhcdo1xRLejX2GnTwvbwGJSmM"},"assemblyId":{"data":"y9g1pIpm9O4fub/cvGHl/p10xlsc0qGTGKZTZdgJPQg="},"score":"1","rank":3}
{"_id":{"$oid":"623d9666dd632f000102b009"},"keyPub":{"rawData":"Ak/pkxLZY1kyApntZsO18t6eTN6CUkTeTyZjwTru9zGf"},"assemblyId":{"data":"y9g1pIpm9O4fub/cvGHl/p10xlsc0qGTGKZTZdgJPQg="},"score":"1","rank":4}
{"_id":{"$oid":"623d9666dd632f000102b00a"},"keyPub":{"rawData":"A0TWQxJpcVjkJ/XiRStltREQT/Etn2WYeZKKeMu/doAg"},"assemblyId":{"data":"y9g1pIpm9O4fub/cvGHl/p10xlsc0qGTGKZTZdgJPQg="},"score":"1","rank":5}
{"_id":{"$oid":"623d9666dd632f000102b00b"},"keyPub":{"rawData":"AghoA0lBjWqbd2vybt5cHW70w57CuD6SElQ3/XrZnOG6"},"assemblyId":{"data":"y9g1pIpm9O4fub/cvGHl/p10xlsc0qGTGKZTZdgJPQg="},"score":"1","rank":6}
{"_id":{"$oid":"623d9666dd632f000102b00c"},"keyPub":{"rawData":"As7hSrlA0c2mVunUIF20bGWfhmFi/CFLG/sZGtBWV3qn"},"assemblyId":{"data":"y9g1pIpm9O4fub/cvGHl/p10xlsc0qGTGKZTZdgJPQg="},"score":"1","rank":7}
{"_id":{"$oid":"623d9666dd632f000102b00d"},"keyPub":{"rawData":"AsP/6/ZvUGdvWyw0Lb61DfYAmVdEJSPzvO2N91QtSiER"},"assemblyId":{"data":"y9g1pIpm9O4fub/cvGHl/p10xlsc0qGTGKZTZdgJPQg="},"score":"1","rank":8}
{"_id":{"$oid":"623d9666dd632f000102b00e"},"keyPub":{"rawData":"AtxgVRb+u6PoAkC4LicCmP3Bim0Zku/ImYPhfBpciB1P"},"assemblyId":{"data":"y9g1pIpm9O4fub/cvGHl/p10xlsc0qGTGKZTZdgJPQg="},"score":"1","rank":9}
{"_id":{"$oid":"623d9666dd632f000102b010"},"keyPub":{"rawData":"ApvvQXz/u74xBw0EGel4dMlum22aggyz1Da8vdzajAU3"},"assemblyId":{"data":"JIORsAlU9xGFaNic8h48NnIk+7vIjfnJOqDgmC0me9w="},"score":"1","rank":0}
{"_id":{"$oid":"623d9666dd632f000102b011"},"keyPub":{"rawData":"AjXve1NO7uRXZJi3eYApOgTIHcQrZznWmIc7ibKesjKA"},"assemblyId":{"data":"JIORsAlU9xGFaNic8h48NnIk+7vIjfnJOqDgmC0me9w="},"score":"1","rank":1}
{"_id":{"$oid":"623d9666dd632f000102b012"},"keyPub":{"rawData":"Avl8dMbY8m6X7vVfCxeXQDIPvYGe7GcFsa7m7HMUJfip"},"assemblyId":{"data":"JIORsAlU9xGFaNic8h48NnIk+7vIjfnJOqDgmC0me9w="},"score":"1","rank":2}
{"_id":{"$oid":"623d9666dd632f000102b013"},"keyPub":{"rawData":"Aquv5BMWEvht85wuBlZWhcdo1xRLejX2GnTwvbwGJSmM"},"assemblyId":{"data":"JIORsAlU9xGFaNic8h48NnIk+7vIjfnJOqDgmC0me9w="},"score":"1","rank":3}
{"_id":{"$oid":"623d9666dd632f000102b014"},"keyPub":{"rawData":"Ak/pkxLZY1kyApntZsO18t6eTN6CUkTeTyZjwTru9zGf"},"assemblyId":{"data":"JIORsAlU9xGFaNic8h48NnIk+7vIjfnJOqDgmC0me9w="},"score":"1","rank":4}
{"_id":{"$oid":"623d9666dd632f000102b015"},"keyPub":{"rawData":"A0TWQxJpcVjkJ/XiRStltREQT/Etn2WYeZKKeMu/doAg"},"assemblyId":{"data":"JIORsAlU9xGFaNic8h48NnIk+7vIjfnJOqDgmC0me9w="},"score":"1","rank":5}
{"_id":{"$oid":"623d9666dd632f000102b016"},"keyPub":{"rawData":"AghoA0lBjWqbd2vybt5cHW70w57CuD6SElQ3/XrZnOG6"},"assemblyId":{"data":"JIORsAlU9xGFaNic8h48NnIk+7vIjfnJOqDgmC0me9w="},"score":"1","rank":6}
{"_id":{"$oid":"623d9666dd632f000102b017"},"keyPub":{"rawData":"As7hSrlA0c2mVunUIF20bGWfhmFi/CFLG/sZGtBWV3qn"},"assemblyId":{"data":"JIORsAlU9xGFaNic8h48NnIk+7vIjfnJOqDgmC0me9w="},"score":"1","rank":7}
{"_id":{"$oid":"623d9666dd632f000102b018"},"keyPub":{"rawData":"AsP/6/ZvUGdvWyw0Lb61DfYAmVdEJSPzvO2N91QtSiER"},"assemblyId":{"data":"JIORsAlU9xGFaNic8h48NnIk+7vIjfnJOqDgmC0me9w="},"score":"1","rank":8}
{"_id":{"$oid":"623d9666dd632f000102b019"},"keyPub":{"rawData":"AtxgVRb+u6PoAkC4LicCmP3Bim0Zku/ImYPhfBpciB1P"},"assemblyId":{"data":"JIORsAlU9xGFaNic8h48NnIk+7vIjfnJOqDgmC0me9w="},"score":"1","rank":9}
{"_id":{"$oid":"623d9691dd632f00017789b2"},"keyPub":{"rawData":"ApvvQXz/u74xBw0EGel4dMlum22aggyz1Da8vdzajAU3"},"assemblyId":{"data":"QPcVgloZww85Mso8X7iKDv+/kSmXB1+L8d4l4BK2dC0="},"score":"1","rank":0}
{"_id":{"$oid":"623d9691dd632f00017789b3"},"keyPub":{"rawData":"AjXve1NO7uRXZJi3eYApOgTIHcQrZznWmIc7ibKesjKA"},"assemblyId":{"data":"QPcVgloZww85Mso8X7iKDv+/kSmXB1+L8d4l4BK2dC0="},"score":"1","rank":1}
{"_id":{"$oid":"623d9691dd632f00017789b4"},"keyPub":{"rawData":"Avl8dMbY8m6X7vVfCxeXQDIPvYGe7GcFsa7m7HMUJfip"},"assemblyId":{"data":"QPcVgloZww85Mso8X7iKDv+/kSmXB1+L8d4l4BK2dC0="},"score":"1","rank":2}
{"_id":{"$oid":"623d9691dd632f00017789b5"},"keyPub":{"rawData":"Aquv5BMWEvht85wuBlZWhcdo1xRLejX2GnTwvbwGJSmM"},"assemblyId":{"data":"QPcVgloZww85Mso8X7iKDv+/kSmXB1+L8d4l4BK2dC0="},"score":"1","rank":3}
{"_id":{"$oid":"623d9691dd632f00017789b6"},"keyPub":{"rawData":"Ak/pkxLZY1kyApntZsO18t6eTN6CUkTeTyZjwTru9zGf"},"assemblyId":{"data":"QPcVgloZww85Mso8X7iKDv+/kSmXB1+L8d4l4BK2dC0="},"score":"1","rank":4}
{"_id":{"$oid":"623d9691dd632f00017789b7"},"keyPub":{"rawData":"A0TWQxJpcVjkJ/XiRStltREQT/Etn2WYeZKKeMu/doAg"},"assemblyId":{"data":"QPcVgloZww85Mso8X7iKDv+/kSmXB1+L8d4l4BK2dC0="},"score":"1","rank":5}
{"_id":{"$oid":"623d9691dd632f00017789b8"},"keyPub":{"rawData":"AghoA0lBjWqbd2vybt5cHW70w57CuD6SElQ3/XrZnOG6"},"assemblyId":{"data":"QPcVgloZww85Mso8X7iKDv+/kSmXB1+L8d4l4BK2dC0="},"score":"1","rank":6}
{"_id":{"$oid":"623d9691dd632f00017789b9"},"keyPub":{"rawData":"As7hSrlA0c2mVunUIF20bGWfhmFi/CFLG/sZGtBWV3qn"},"assemblyId":{"data":"QPcVgloZww85Mso8X7iKDv+/kSmXB1+L8d4l4BK2dC0="},"score":"1","rank":7}
{"_id":{"$oid":"623d9691dd632f00017789ba"},"keyPub":{"rawData":"AsP/6/ZvUGdvWyw0Lb61DfYAmVdEJSPzvO2N91QtSiER"},"assemblyId":{"data":"QPcVgloZww85Mso8X7iKDv+/kSmXB1+L8d4l4BK2dC0="},"score":"1","rank":8}
{"_id":{"$oid":"623d9691dd632f00017789bb"},"keyPub":{"rawData":"AtxgVRb+u6PoAkC4LicCmP3Bim0Zku/ImYPhfBpciB1P"},"assemblyId":{"data":"QPcVgloZww85Mso8X7iKDv+/kSmXB1+L8d4l4BK2dC0="},"score":"1","rank":9}
{"_id":{"$oid":"623d97ebdd632f00011e6f29"},"keyPub":{"rawData":"ApvvQXz/u74xBw0EGel4dMlum22aggyz1Da8vdzajAU3"},"assemblyId":{"data":"M6KrFHGAkyygV+Pr32K/tpcQHIiw9gfGE6YKramDFOU="},"score":"1.0000416493127864","rank":0}
{"_id":{"$oid":"623d97ebdd632f00011e6f2a"},"keyPub":{"rawData":"A1XAH58xQUyJS1kMOsEBGSBCeTk+IVx1sDGQY+/1HikG"},"assemblyId":{"data":"M6KrFHGAkyygV+Pr32K/tpcQHIiw9gfGE6YKramDFOU="},"score":"1","rank":1}
{"_id":{"$oid":"623d97ebdd632f00011e6f2b"},"keyPub":{"rawData":"Au0uAsONrwsdHmwwVOMkExe+KpFU/4xSkfmEQ/fhFUDJ"},"assemblyId":{"data":"M6KrFHGAkyygV+Pr32K/tpcQHIiw9gfGE6YKramDFOU="},"score":"1","rank":2}
{"_id":{"$oid":"623da5e6dd632f00017ab48b"},"keyPub":{"rawData":"ApvvQXz/u74xBw0EGel4dMlum22aggyz1Da8vdzajAU3"},"assemblyId":{"data":"el/vahKDwVT+yIYWTc9xhIDD0htCScsdlKVkqVg+Pko="},"score":"1.0009083402146985","rank":0}
{"_id":{"$oid":"623da5e6dd632f00017ab48c"},"keyPub":{"rawData":"A1XAH58xQUyJS1kMOsEBGSBCeTk+IVx1sDGQY+/1HikG"},"assemblyId":{"data":"el/vahKDwVT+yIYWTc9xhIDD0htCScsdlKVkqVg+Pko="},"score":"1","rank":1}
{"_id":{"$oid":"623da5e6dd632f00017ab48d"},"keyPub":{"rawData":"Au0uAsONrwsdHmwwVOMkExe+KpFU/4xSkfmEQ/fhFUDJ"},"assemblyId":{"data":"el/vahKDwVT+yIYWTc9xhIDD0htCScsdlKVkqVg+Pko="},"score":"1","rank":2}
{"_id":{"$oid":"623db3f4dd632f00017ac6f2"},"keyPub":{"rawData":"ApvvQXz/u74xBw0EGel4dMlum22aggyz1Da8vdzajAU3"},"assemblyId":{"data":"y50jTrlPeUNJgCnpwY8ShlQ8HvVywItPU/rKT+tQaxw="},"score":"1.0009083402146985","rank":0}
{"_id":{"$oid":"623db3f4dd632f00017ac6f3"},"keyPub":{"rawData":"A1XAH58xQUyJS1kMOsEBGSBCeTk+IVx1sDGQY+/1HikG"},"assemblyId":{"data":"y50jTrlPeUNJgCnpwY8ShlQ8HvVywItPU/rKT+tQaxw="},"score":"1","rank":1}
{"_id":{"$oid":"623db3f4dd632f00017ac6f4"},"keyPub":{"rawData":"Au0uAsONrwsdHmwwVOMkExe+KpFU/4xSkfmEQ/fhFUDJ"},"assemblyId":{"data":"y50jTrlPeUNJgCnpwY8ShlQ8HvVywItPU/rKT+tQaxw="},"score":"1","rank":2}
{"_id":{"$oid":"623dc207dd632f00017ad951"},"keyPub":{"rawData":"ApvvQXz/u74xBw0EGel4dMlum22aggyz1Da8vdzajAU3"},"assemblyId":{"data":"wmLuuEw8UAJfJq4MwKBE8/Zv9tW+iA0PMurmgrfIW8Q="},"score":"1.0009083402146985","rank":0}
{"_id":{"$oid":"623dc207dd632f00017ad952"},"keyPub":{"rawData":"A1XAH58xQUyJS1kMOsEBGSBCeTk+IVx1sDGQY+/1HikG"},"assemblyId":{"data":"wmLuuEw8UAJfJq4MwKBE8/Zv9tW+iA0PMurmgrfIW8Q="},"score":"1","rank":1}
{"_id":{"$oid":"623dc207dd632f00017ad953"},"keyPub":{"rawData":"Au0uAsONrwsdHmwwVOMkExe+KpFU/4xSkfmEQ/fhFUDJ"},"assemblyId":{"data":"wmLuuEw8UAJfJq4MwKBE8/Zv9tW+iA0PMurmgrfIW8Q="},"score":"1","rank":2}
{"_id":{"$oid":"623dd014dd632f00017aebb9"},"keyPub":{"rawData":"ApvvQXz/u74xBw0EGel4dMlum22aggyz1Da8vdzajAU3"},"assemblyId":{"data":"j71ji5pn0jFV6wqOZ68RKujtzwwOOLFpaBhX2LmCF3o="},"score":"1.0009083402146985","rank":0}
{"_id":{"$oid":"623dd014dd632f00017aebba"},"keyPub":{"rawData":"A1XAH58xQUyJS1kMOsEBGSBCeTk+IVx1sDGQY+/1HikG"},"assemblyId":{"data":"j71ji5pn0jFV6wqOZ68RKujtzwwOOLFpaBhX2LmCF3o="},"score":"1","rank":1}
{"_id":{"$oid":"623dd014dd632f00017aebbb"},"keyPub":{"rawData":"Au0uAsONrwsdHmwwVOMkExe+KpFU/4xSkfmEQ/fhFUDJ"},"assemblyId":{"data":"j71ji5pn0jFV6wqOZ68RKujtzwwOOLFpaBhX2LmCF3o="},"score":"1","rank":2}
{"_id":{"$oid":"623dde27dd632f00017afe31"},"keyPub":{"rawData":"ApvvQXz/u74xBw0EGel4dMlum22aggyz1Da8vdzajAU3"},"assemblyId":{"data":"itUXNMFoQ+IjQJwQkTZGC2CGU9dMnOOMP0haepQgk00="},"score":"1.0009083402146985","rank":0}
{"_id":{"$oid":"623dde27dd632f00017afe32"},"keyPub":{"rawData":"A1XAH58xQUyJS1kMOsEBGSBCeTk+IVx1sDGQY+/1HikG"},"assemblyId":{"data":"itUXNMFoQ+IjQJwQkTZGC2CGU9dMnOOMP0haepQgk00="},"score":"1","rank":1}
{"_id":{"$oid":"623dde27dd632f00017afe33"},"keyPub":{"rawData":"Au0uAsONrwsdHmwwVOMkExe+KpFU/4xSkfmEQ/fhFUDJ"},"assemblyId":{"data":"itUXNMFoQ+IjQJwQkTZGC2CGU9dMnOOMP0haepQgk00="},"score":"1","rank":2}
